Aug-27 14:59:33.212 [main] DEBUG nextflow.cli.Launcher - $> nextflow run fastaGrep.nf
Aug-27 14:59:33.364 [main] INFO  nextflow.cli.CmdRun - N E X T F L O W  ~  version 21.04.3
Aug-27 14:59:33.391 [main] INFO  nextflow.cli.CmdRun - Launching `fastaGrep.nf` [adoring_aryabhata] - revision: f7c662b2cd
Aug-27 14:59:33.496 [main] DEBUG nextflow.plugin.PluginsFacade - Setting up plugin manager > mode=prod; plugins-dir=/home/alexander/.nextflow/plugins
Aug-27 14:59:33.497 [main] DEBUG nextflow.plugin.PluginsFacade - Plugins default=[]
Aug-27 14:59:33.500 [main] DEBUG nextflow.plugin.PluginsFacade - Plugins local root: .nextflow/plr/empty
Aug-27 14:59:33.508 [main] INFO  org.pf4j.DefaultPluginStatusProvider - Enabled plugins: []
Aug-27 14:59:33.510 [main] INFO  org.pf4j.DefaultPluginStatusProvider - Disabled plugins: []
Aug-27 14:59:33.514 [main] INFO  org.pf4j.DefaultPluginManager - PF4J version 3.4.1 in 'deployment' mode
Aug-27 14:59:33.529 [main] INFO  org.pf4j.AbstractPluginManager - No plugins
Aug-27 14:59:33.593 [main] DEBUG nextflow.Session - Session uuid: 8b2b047e-fa14-48b6-bc58-09e20f5f90fe
Aug-27 14:59:33.594 [main] DEBUG nextflow.Session - Run name: adoring_aryabhata
Aug-27 14:59:33.596 [main] DEBUG nextflow.Session - Executor pool size: 4
Aug-27 14:59:33.642 [main] DEBUG nextflow.cli.CmdRun - 
  Version: 21.04.3 build 5560
  Created: 21-07-2021 15:09 UTC (17:09 CEST)
  System: Linux 5.11.0-27-generic
  Runtime: Groovy 3.0.7 on OpenJDK 64-Bit Server VM 11.0.11+9-Ubuntu-0ubuntu2.20.04
  Encoding: UTF-8 (UTF-8)
  Process: 47897@alexander-VirtualBox [127.0.1.1]
  CPUs: 4 - Mem: 3.8 GB (257.1 MB) - Swap: 923.3 MB (901.1 MB)
Aug-27 14:59:33.669 [main] DEBUG nextflow.Session - Work-dir: /home/alexander/ngsGit/fastaGrepTest/fastagreptrial/work [ext2/ext3]
Aug-27 14:59:33.670 [main] DEBUG nextflow.Session - Script base path does not exist or is not a directory: /home/alexander/ngsGit/fastaGrepTest/fastagreptrial/bin
Aug-27 14:59:33.682 [main] DEBUG nextflow.executor.ExecutorFactory - Extension executors providers=[]
Aug-27 14:59:33.696 [main] DEBUG nextflow.Session - Observer factory: DefaultObserverFactory
Aug-27 14:59:33.849 [main] DEBUG nextflow.Session - Session start invoked
Aug-27 14:59:34.920 [main] DEBUG nextflow.script.ScriptRunner - > Launching execution
Aug-27 14:59:34.985 [main] DEBUG nextflow.Session - Workflow process names [dsl2]: end_colon, split_file, start_colon
Aug-27 14:59:35.082 [main] DEBUG nextflow.executor.ExecutorFactory - << taskConfig executor: null
Aug-27 14:59:35.082 [main] DEBUG nextflow.executor.ExecutorFactory - >> processorType: 'local'
Aug-27 14:59:35.090 [main] DEBUG nextflow.executor.Executor - [warm up] executor > local
Aug-27 14:59:35.096 [main] DEBUG n.processor.LocalPollingMonitor - Creating local task monitor for executor 'local' > cpus=4; memory=3.8 GB; capacity=4; pollInterval=100ms; dumpInterval=5m
Aug-27 14:59:35.250 [main] DEBUG nextflow.executor.ExecutorFactory - << taskConfig executor: null
Aug-27 14:59:35.250 [main] DEBUG nextflow.executor.ExecutorFactory - >> processorType: 'local'
Aug-27 14:59:35.259 [main] DEBUG nextflow.executor.ExecutorFactory - << taskConfig executor: null
Aug-27 14:59:35.259 [main] DEBUG nextflow.executor.ExecutorFactory - >> processorType: 'local'
Aug-27 14:59:35.274 [main] DEBUG nextflow.Session - Ignite dataflow network (4)
Aug-27 14:59:35.281 [main] DEBUG nextflow.processor.TaskProcessor - Starting process > split_file
Aug-27 14:59:35.282 [main] DEBUG nextflow.processor.TaskProcessor - Starting process > start_colon
Aug-27 14:59:35.283 [main] DEBUG nextflow.processor.TaskProcessor - Starting process > end_colon
Aug-27 14:59:35.284 [main] DEBUG nextflow.script.ScriptRunner - > Await termination 
Aug-27 14:59:35.284 [main] DEBUG nextflow.Session - Session await
Aug-27 14:59:35.471 [Task submitter] DEBUG nextflow.executor.LocalTaskHandler - Launch cmd line: /bin/bash -ue .command.run
Aug-27 14:59:35.476 [Task submitter] INFO  nextflow.Session - [15/dae0ae] Submitted process > split_file (1)
Aug-27 14:59:35.515 [Task monitor] DEBUG n.processor.TaskPollingMonitor - Task completed > TaskHandler[id: 1; name: split_file (1); status: COMPLETED; exit: 0; error: -; workDir: /home/alexander/ngsGit/fastaGrepTest/fastagreptrial/work/15/dae0aed4221636cadc42f05063c0e8]
Aug-27 14:59:35.525 [Task monitor] DEBUG nextflow.processor.TaskProcessor - Process `split_file (1)` is unable to find [UnixPath]: `/home/alexander/ngsGit/fastaGrepTest/fastagreptrial/work/15/dae0aed4221636cadc42f05063c0e8/sequences.fasta.line` (pattern: `sequences.fasta.line`)
Aug-27 14:59:35.558 [Task monitor] ERROR nextflow.processor.TaskProcessor - Error executing process > 'split_file (1)'

Caused by:
  Missing output file(s) `sequences.fasta.line` expected by process `split_file (1)`

Command executed:

  split -l 1 sequences.fasta -d sequences.fasta.line

Command exit status:
  0

Command output:
  (empty)

Work dir:
  /home/alexander/ngsGit/fastaGrepTest/fastagreptrial/work/15/dae0aed4221636cadc42f05063c0e8

Tip: you can try to figure out what's wrong by changing to the process work dir and showing the script file named `.command.sh`
Aug-27 14:59:35.569 [Task monitor] DEBUG nextflow.Session - Session aborted -- Cause: Missing output file(s) `sequences.fasta.line` expected by process `split_file (1)`
Aug-27 14:59:35.576 [main] DEBUG nextflow.Session - Session await > all process finished
Aug-27 14:59:35.632 [main] DEBUG nextflow.Session - Session await > all barriers passed
Aug-27 14:59:35.639 [main] DEBUG nextflow.trace.WorkflowStatsObserver - Workflow completed > WorkflowStats[succeededCount=0; failedCount=1; ignoredCount=0; cachedCount=0; pendingCount=0; submittedCount=0; runningCount=0; retriesCount=0; abortedCount=0; succeedDuration=0ms; failedDuration=3ms; cachedDuration=0ms;loadCpus=0; loadMemory=0; peakRunning=1; peakCpus=1; peakMemory=0; ]
Aug-27 14:59:35.779 [main] DEBUG nextflow.CacheDB - Closing CacheDB done
Aug-27 14:59:35.793 [main] DEBUG nextflow.script.ScriptRunner - > Execution complete -- Goodbye
