Aug-27 15:12:07.909 [main] DEBUG nextflow.cli.Launcher - $> nextflow run fastaGrep.nf
Aug-27 15:12:08.045 [main] INFO  nextflow.cli.CmdRun - N E X T F L O W  ~  version 21.04.3
Aug-27 15:12:08.071 [main] INFO  nextflow.cli.CmdRun - Launching `fastaGrep.nf` [goofy_hypatia] - revision: 51bd4a8322
Aug-27 15:12:08.203 [main] DEBUG nextflow.plugin.PluginsFacade - Setting up plugin manager > mode=prod; plugins-dir=/home/alexander/.nextflow/plugins
Aug-27 15:12:08.205 [main] DEBUG nextflow.plugin.PluginsFacade - Plugins default=[]
Aug-27 15:12:08.210 [main] DEBUG nextflow.plugin.PluginsFacade - Plugins local root: .nextflow/plr/empty
Aug-27 15:12:08.224 [main] INFO  org.pf4j.DefaultPluginStatusProvider - Enabled plugins: []
Aug-27 15:12:08.225 [main] INFO  org.pf4j.DefaultPluginStatusProvider - Disabled plugins: []
Aug-27 15:12:08.231 [main] INFO  org.pf4j.DefaultPluginManager - PF4J version 3.4.1 in 'deployment' mode
Aug-27 15:12:08.244 [main] INFO  org.pf4j.AbstractPluginManager - No plugins
Aug-27 15:12:08.311 [main] DEBUG nextflow.Session - Session uuid: 2658d804-3755-4177-a3f4-b558d543b292
Aug-27 15:12:08.311 [main] DEBUG nextflow.Session - Run name: goofy_hypatia
Aug-27 15:12:08.314 [main] DEBUG nextflow.Session - Executor pool size: 4
Aug-27 15:12:08.362 [main] DEBUG nextflow.cli.CmdRun - 
  Version: 21.04.3 build 5560
  Created: 21-07-2021 15:09 UTC (17:09 CEST)
  System: Linux 5.11.0-27-generic
  Runtime: Groovy 3.0.7 on OpenJDK 64-Bit Server VM 11.0.11+9-Ubuntu-0ubuntu2.20.04
  Encoding: UTF-8 (UTF-8)
  Process: 48271@alexander-VirtualBox [127.0.1.1]
  CPUs: 4 - Mem: 3.8 GB (226 MB) - Swap: 923.3 MB (901.1 MB)
Aug-27 15:12:08.386 [main] DEBUG nextflow.Session - Work-dir: /home/alexander/ngsGit/fastaGrepTest/fastagreptrial/work [ext2/ext3]
Aug-27 15:12:08.387 [main] DEBUG nextflow.Session - Script base path does not exist or is not a directory: /home/alexander/ngsGit/fastaGrepTest/fastagreptrial/bin
Aug-27 15:12:08.399 [main] DEBUG nextflow.executor.ExecutorFactory - Extension executors providers=[]
Aug-27 15:12:08.414 [main] DEBUG nextflow.Session - Observer factory: DefaultObserverFactory
Aug-27 15:12:08.554 [main] DEBUG nextflow.Session - Session start invoked
Aug-27 15:12:09.746 [main] DEBUG nextflow.script.ScriptRunner - > Launching execution
Aug-27 15:12:09.794 [main] DEBUG nextflow.Session - Workflow process names [dsl2]: calculate_start_total, end_colon, split_file, start_colon, calculate_end_total
Aug-27 15:12:09.913 [main] DEBUG nextflow.executor.ExecutorFactory - << taskConfig executor: null
Aug-27 15:12:09.914 [main] DEBUG nextflow.executor.ExecutorFactory - >> processorType: 'local'
Aug-27 15:12:09.919 [main] DEBUG nextflow.executor.Executor - [warm up] executor > local
Aug-27 15:12:09.927 [main] DEBUG n.processor.LocalPollingMonitor - Creating local task monitor for executor 'local' > cpus=4; memory=3.8 GB; capacity=4; pollInterval=100ms; dumpInterval=5m
Aug-27 15:12:10.087 [main] DEBUG nextflow.executor.ExecutorFactory - << taskConfig executor: null
Aug-27 15:12:10.087 [main] DEBUG nextflow.executor.ExecutorFactory - >> processorType: 'local'
Aug-27 15:12:10.094 [main] DEBUG nextflow.executor.ExecutorFactory - << taskConfig executor: null
Aug-27 15:12:10.094 [main] DEBUG nextflow.executor.ExecutorFactory - >> processorType: 'local'
Aug-27 15:12:10.133 [main] DEBUG nextflow.executor.ExecutorFactory - << taskConfig executor: null
Aug-27 15:12:10.134 [main] DEBUG nextflow.executor.ExecutorFactory - >> processorType: 'local'
Aug-27 15:12:10.142 [main] DEBUG nextflow.executor.ExecutorFactory - << taskConfig executor: null
Aug-27 15:12:10.142 [main] DEBUG nextflow.executor.ExecutorFactory - >> processorType: 'local'
Aug-27 15:12:10.146 [main] DEBUG nextflow.Session - Ignite dataflow network (6)
Aug-27 15:12:10.153 [main] DEBUG nextflow.processor.TaskProcessor - Starting process > split_file
Aug-27 15:12:10.153 [main] DEBUG nextflow.processor.TaskProcessor - Starting process > start_colon
Aug-27 15:12:10.158 [main] DEBUG nextflow.processor.TaskProcessor - Starting process > end_colon
Aug-27 15:12:10.160 [main] DEBUG nextflow.processor.TaskProcessor - Starting process > calculate_start_total
Aug-27 15:12:10.161 [main] DEBUG nextflow.processor.TaskProcessor - Starting process > calculate_end_total
Aug-27 15:12:10.161 [main] DEBUG nextflow.script.ScriptRunner - > Await termination 
Aug-27 15:12:10.161 [main] DEBUG nextflow.Session - Session await
Aug-27 15:12:10.423 [Task submitter] DEBUG nextflow.executor.LocalTaskHandler - Launch cmd line: /bin/bash -ue .command.run
Aug-27 15:12:10.429 [Task submitter] INFO  nextflow.Session - [44/e2af75] Submitted process > split_file (1)
Aug-27 15:12:10.468 [Task monitor] DEBUG n.processor.TaskPollingMonitor - Task completed > TaskHandler[id: 1; name: split_file (1); status: COMPLETED; exit: 0; error: -; workDir: /home/alexander/ngsGit/fastaGrepTest/fastagreptrial/work/44/e2af75836a268a436da2b556c3c4d0]
Aug-27 15:12:10.535 [Task submitter] DEBUG nextflow.executor.LocalTaskHandler - Launch cmd line: /bin/bash -ue .command.run
Aug-27 15:12:10.544 [Task submitter] INFO  nextflow.Session - [f0/2df252] Submitted process > end_colon (1)
Aug-27 15:12:10.607 [Task submitter] DEBUG nextflow.executor.LocalTaskHandler - Launch cmd line: /bin/bash -ue .command.run
Aug-27 15:12:10.620 [Task submitter] INFO  nextflow.Session - [4d/ab61d2] Submitted process > start_colon (2)
Aug-27 15:12:10.625 [Task submitter] DEBUG nextflow.executor.LocalTaskHandler - Launch cmd line: /bin/bash -ue .command.run
Aug-27 15:12:10.626 [Task submitter] INFO  nextflow.Session - [c9/477965] Submitted process > start_colon (3)
Aug-27 15:12:10.634 [Task submitter] DEBUG nextflow.executor.LocalTaskHandler - Launch cmd line: /bin/bash -ue .command.run
Aug-27 15:12:10.638 [Task submitter] INFO  nextflow.Session - [f4/897310] Submitted process > end_colon (5)
Aug-27 15:12:10.663 [Task monitor] DEBUG n.processor.TaskPollingMonitor - Task completed > TaskHandler[id: 2; name: end_colon (1); status: COMPLETED; exit: 1; error: -; workDir: /home/alexander/ngsGit/fastaGrepTest/fastagreptrial/work/f0/2df2524ac59469e7c33ee3e89607db]
Aug-27 15:12:10.671 [Task submitter] DEBUG nextflow.executor.LocalTaskHandler - Launch cmd line: /bin/bash -ue .command.run
Aug-27 15:12:10.672 [Task submitter] INFO  nextflow.Session - [f5/01b2fc] Submitted process > start_colon (1)
Aug-27 15:12:10.694 [Task monitor] ERROR nextflow.processor.TaskProcessor - Error executing process > 'end_colon (1)'

Caused by:
  Process `end_colon (1)` terminated with an error exit status (1)

Command executed:

  grep -o -i "TAA" sequences.fasta.line00 > grepresult
  cat grepresult | wc -l > sequences.fasta.line00.endCount

Command exit status:
  1

Command output:
  (empty)

Work dir:
  /home/alexander/ngsGit/fastaGrepTest/fastagreptrial/work/f0/2df2524ac59469e7c33ee3e89607db

Tip: you can replicate the issue by changing to the process work dir and entering the command `bash .command.run`
Aug-27 15:12:10.706 [Task monitor] DEBUG nextflow.Session - Session aborted -- Cause: Process `end_colon (1)` terminated with an error exit status (1)
Aug-27 15:12:10.745 [Task monitor] DEBUG nextflow.Session - The following nodes are still active:
[process] calculate_start_total
  status=ACTIVE
  port 0: (value) OPEN  ; channel: infiles
  port 1: (cntrl) -     ; channel: $

[process] calculate_end_total
  status=ACTIVE
  port 0: (value) OPEN  ; channel: infiles
  port 1: (cntrl) -     ; channel: $

Aug-27 15:12:10.748 [main] DEBUG nextflow.Session - Session await > all process finished
Aug-27 15:12:10.748 [main] DEBUG nextflow.Session - Session await > all barriers passed
Aug-27 15:12:10.752 [Task monitor] DEBUG n.processor.TaskPollingMonitor - Task completed > TaskHandler[id: 4; name: start_colon (2); status: COMPLETED; exit: 1; error: -; workDir: /home/alexander/ngsGit/fastaGrepTest/fastagreptrial/work/4d/ab61d28d2c4640204572072c68a8b0]
Aug-27 15:12:10.755 [Task monitor] DEBUG n.processor.TaskPollingMonitor - Task completed > TaskHandler[id: 5; name: start_colon (3); status: COMPLETED; exit: 1; error: -; workDir: /home/alexander/ngsGit/fastaGrepTest/fastagreptrial/work/c9/477965c3590f887efc64c9c780ca1e]
Aug-27 15:12:10.759 [main] WARN  n.processor.TaskPollingMonitor - Killing pending tasks (2)
Aug-27 15:12:10.768 [main] DEBUG nextflow.executor.LocalTaskHandler - Unable to kill end_colon (5) -- command: kill -TERM 48405; exit: 1 
 bash: line 0: kill: (48405) - No such process

Aug-27 15:12:10.774 [main] DEBUG nextflow.executor.LocalTaskHandler - Unable to kill start_colon (1) -- command: kill -TERM 48431; exit: 1 
 bash: line 0: kill: (48431) - No such process

Aug-27 15:12:10.777 [main] DEBUG nextflow.trace.WorkflowStatsObserver - Workflow completed > WorkflowStats[succeededCount=1; failedCount=3; ignoredCount=0; cachedCount=0; pendingCount=11; submittedCount=2; runningCount=-2; retriesCount=0; abortedCount=2; succeedDuration=3ms; failedDuration=83ms; cachedDuration=0ms;loadCpus=-2; loadMemory=0; peakRunning=1; peakCpus=1; peakMemory=0; ]
Aug-27 15:12:10.912 [main] DEBUG nextflow.CacheDB - Closing CacheDB done
Aug-27 15:12:10.945 [main] DEBUG nextflow.script.ScriptRunner - > Execution complete -- Goodbye
