Aug-27 15:13:04.421 [main] DEBUG nextflow.cli.Launcher - $> nextflow run fastaGrep.nf
Aug-27 15:13:04.560 [main] INFO  nextflow.cli.CmdRun - N E X T F L O W  ~  version 21.04.3
Aug-27 15:13:04.600 [main] INFO  nextflow.cli.CmdRun - Launching `fastaGrep.nf` [extravagant_williams] - revision: b64c0641f6
Aug-27 15:13:04.718 [main] DEBUG nextflow.plugin.PluginsFacade - Setting up plugin manager > mode=prod; plugins-dir=/home/alexander/.nextflow/plugins
Aug-27 15:13:04.720 [main] DEBUG nextflow.plugin.PluginsFacade - Plugins default=[]
Aug-27 15:13:04.723 [main] DEBUG nextflow.plugin.PluginsFacade - Plugins local root: .nextflow/plr/empty
Aug-27 15:13:04.732 [main] INFO  org.pf4j.DefaultPluginStatusProvider - Enabled plugins: []
Aug-27 15:13:04.733 [main] INFO  org.pf4j.DefaultPluginStatusProvider - Disabled plugins: []
Aug-27 15:13:04.737 [main] INFO  org.pf4j.DefaultPluginManager - PF4J version 3.4.1 in 'deployment' mode
Aug-27 15:13:04.753 [main] INFO  org.pf4j.AbstractPluginManager - No plugins
Aug-27 15:13:04.819 [main] DEBUG nextflow.Session - Session uuid: e27563c5-d55d-463c-80b7-65356517b2fc
Aug-27 15:13:04.819 [main] DEBUG nextflow.Session - Run name: extravagant_williams
Aug-27 15:13:04.836 [main] DEBUG nextflow.Session - Executor pool size: 4
Aug-27 15:13:04.896 [main] DEBUG nextflow.cli.CmdRun - 
  Version: 21.04.3 build 5560
  Created: 21-07-2021 15:09 UTC (17:09 CEST)
  System: Linux 5.11.0-27-generic
  Runtime: Groovy 3.0.7 on OpenJDK 64-Bit Server VM 11.0.11+9-Ubuntu-0ubuntu2.20.04
  Encoding: UTF-8 (UTF-8)
  Process: 48491@alexander-VirtualBox [127.0.1.1]
  CPUs: 4 - Mem: 3.8 GB (274.6 MB) - Swap: 923.3 MB (888 MB)
Aug-27 15:13:04.924 [main] DEBUG nextflow.Session - Work-dir: /home/alexander/ngsGit/fastaGrepTest/fastagreptrial/work [ext2/ext3]
Aug-27 15:13:04.924 [main] DEBUG nextflow.Session - Script base path does not exist or is not a directory: /home/alexander/ngsGit/fastaGrepTest/fastagreptrial/bin
Aug-27 15:13:04.940 [main] DEBUG nextflow.executor.ExecutorFactory - Extension executors providers=[]
Aug-27 15:13:04.973 [main] DEBUG nextflow.Session - Observer factory: DefaultObserverFactory
Aug-27 15:13:05.114 [main] DEBUG nextflow.Session - Session start invoked
Aug-27 15:13:06.270 [main] DEBUG nextflow.script.ScriptRunner - > Launching execution
Aug-27 15:13:06.324 [main] DEBUG nextflow.Session - Workflow process names [dsl2]: calculate_start_total, end_colon, split_file, start_colon, calculate_end_total
Aug-27 15:13:06.421 [main] DEBUG nextflow.executor.ExecutorFactory - << taskConfig executor: null
Aug-27 15:13:06.421 [main] DEBUG nextflow.executor.ExecutorFactory - >> processorType: 'local'
Aug-27 15:13:06.426 [main] DEBUG nextflow.executor.Executor - [warm up] executor > local
Aug-27 15:13:06.432 [main] DEBUG n.processor.LocalPollingMonitor - Creating local task monitor for executor 'local' > cpus=4; memory=3.8 GB; capacity=4; pollInterval=100ms; dumpInterval=5m
Aug-27 15:13:06.577 [main] DEBUG nextflow.executor.ExecutorFactory - << taskConfig executor: null
Aug-27 15:13:06.578 [main] DEBUG nextflow.executor.ExecutorFactory - >> processorType: 'local'
Aug-27 15:13:06.587 [main] DEBUG nextflow.executor.ExecutorFactory - << taskConfig executor: null
Aug-27 15:13:06.588 [main] DEBUG nextflow.executor.ExecutorFactory - >> processorType: 'local'
Aug-27 15:13:06.612 [main] DEBUG nextflow.executor.ExecutorFactory - << taskConfig executor: null
Aug-27 15:13:06.612 [main] DEBUG nextflow.executor.ExecutorFactory - >> processorType: 'local'
Aug-27 15:13:06.618 [main] DEBUG nextflow.executor.ExecutorFactory - << taskConfig executor: null
Aug-27 15:13:06.618 [main] DEBUG nextflow.executor.ExecutorFactory - >> processorType: 'local'
Aug-27 15:13:06.622 [main] DEBUG nextflow.Session - Ignite dataflow network (6)
Aug-27 15:13:06.628 [main] DEBUG nextflow.processor.TaskProcessor - Starting process > split_file
Aug-27 15:13:06.628 [main] DEBUG nextflow.processor.TaskProcessor - Starting process > start_colon
Aug-27 15:13:06.629 [main] DEBUG nextflow.processor.TaskProcessor - Starting process > end_colon
Aug-27 15:13:06.631 [main] DEBUG nextflow.processor.TaskProcessor - Starting process > calculate_start_total
Aug-27 15:13:06.633 [main] DEBUG nextflow.processor.TaskProcessor - Starting process > calculate_end_total
Aug-27 15:13:06.633 [main] DEBUG nextflow.script.ScriptRunner - > Await termination 
Aug-27 15:13:06.633 [main] DEBUG nextflow.Session - Session await
Aug-27 15:13:06.831 [Task submitter] DEBUG nextflow.executor.LocalTaskHandler - Launch cmd line: /bin/bash -ue .command.run
Aug-27 15:13:06.840 [Task submitter] INFO  nextflow.Session - [5f/6182e0] Submitted process > split_file (1)
Aug-27 15:13:06.883 [Task monitor] DEBUG n.processor.TaskPollingMonitor - Task completed > TaskHandler[id: 1; name: split_file (1); status: COMPLETED; exit: 0; error: -; workDir: /home/alexander/ngsGit/fastaGrepTest/fastagreptrial/work/5f/6182e001ca068a7158e8a690dc1260]
Aug-27 15:13:06.942 [Task submitter] DEBUG nextflow.executor.LocalTaskHandler - Launch cmd line: /bin/bash -ue .command.run
Aug-27 15:13:06.944 [Task submitter] INFO  nextflow.Session - [d9/8b77cc] Submitted process > end_colon (1)
Aug-27 15:13:06.951 [Task submitter] DEBUG nextflow.executor.LocalTaskHandler - Launch cmd line: /bin/bash -ue .command.run
Aug-27 15:13:06.968 [Task submitter] INFO  nextflow.Session - [2c/2bf874] Submitted process > start_colon (2)
Aug-27 15:13:06.995 [Task submitter] DEBUG nextflow.executor.LocalTaskHandler - Launch cmd line: /bin/bash -ue .command.run
Aug-27 15:13:06.995 [Task submitter] INFO  nextflow.Session - [4e/1d6673] Submitted process > start_colon (1)
Aug-27 15:13:07.001 [Task submitter] DEBUG nextflow.executor.LocalTaskHandler - Launch cmd line: /bin/bash -ue .command.run
Aug-27 15:13:07.021 [Task submitter] INFO  nextflow.Session - [01/8221a6] Submitted process > end_colon (5)
Aug-27 15:13:07.028 [Task monitor] DEBUG n.processor.TaskPollingMonitor - Task completed > TaskHandler[id: 2; name: end_colon (1); status: COMPLETED; exit: 1; error: -; workDir: /home/alexander/ngsGit/fastaGrepTest/fastagreptrial/work/d9/8b77cccd7062516b02a8b9adaa5b20]
Aug-27 15:13:07.036 [Task submitter] DEBUG nextflow.executor.LocalTaskHandler - Launch cmd line: /bin/bash -ue .command.run
Aug-27 15:13:07.036 [Task submitter] INFO  nextflow.Session - [2e/f92d89] Submitted process > end_colon (3)
Aug-27 15:13:07.062 [Task monitor] ERROR nextflow.processor.TaskProcessor - Error executing process > 'end_colon (1)'

Caused by:
  Process `end_colon (1)` terminated with an error exit status (1)

Command executed:

  grep -o -i "TAA" sequences.fasta.line00 > grepresult2
  cat grepresult | wc -l > sequences.fasta.line00.endCount

Command exit status:
  1

Command output:
  (empty)

Work dir:
  /home/alexander/ngsGit/fastaGrepTest/fastagreptrial/work/d9/8b77cccd7062516b02a8b9adaa5b20

Tip: when you have fixed the problem you can continue the execution adding the option `-resume` to the run command line
Aug-27 15:13:07.074 [Task monitor] DEBUG nextflow.Session - Session aborted -- Cause: Process `end_colon (1)` terminated with an error exit status (1)
Aug-27 15:13:07.113 [Task monitor] DEBUG nextflow.Session - The following nodes are still active:
[process] calculate_start_total
  status=ACTIVE
  port 0: (value) OPEN  ; channel: infiles
  port 1: (cntrl) -     ; channel: $

[process] calculate_end_total
  status=ACTIVE
  port 0: (value) OPEN  ; channel: infiles
  port 1: (cntrl) -     ; channel: $

Aug-27 15:13:07.115 [main] DEBUG nextflow.Session - Session await > all process finished
Aug-27 15:13:07.116 [main] DEBUG nextflow.Session - Session await > all barriers passed
Aug-27 15:13:07.128 [Task monitor] DEBUG n.processor.TaskPollingMonitor - Task completed > TaskHandler[id: 4; name: start_colon (2); status: COMPLETED; exit: 0; error: -; workDir: /home/alexander/ngsGit/fastaGrepTest/fastagreptrial/work/2c/2bf87458d0f62fadbfb5cdab0c128e]
Aug-27 15:13:07.129 [main] WARN  n.processor.TaskPollingMonitor - Killing pending tasks (3)
Aug-27 15:13:07.133 [Task monitor] DEBUG n.processor.TaskPollingMonitor - Task completed > TaskHandler[id: 3; name: start_colon (1); status: COMPLETED; exit: 1; error: -; workDir: /home/alexander/ngsGit/fastaGrepTest/fastagreptrial/work/4e/1d66733e4ba34e797624d586ffce4c]
Aug-27 15:13:07.181 [Task monitor] DEBUG n.processor.TaskPollingMonitor - Task completed > TaskHandler[id: 8; name: end_colon (5); status: COMPLETED; exit: 1; error: -; workDir: /home/alexander/ngsGit/fastaGrepTest/fastagreptrial/work/01/8221a6a651c5790a80efae68c35843]
Aug-27 15:13:07.187 [main] DEBUG nextflow.executor.LocalTaskHandler - Unable to kill end_colon (5) -- command: kill -TERM 48613; exit: 1 
 bash: line 0: kill: (48613) - No such process

Aug-27 15:13:07.195 [main] DEBUG nextflow.executor.LocalTaskHandler - Unable to kill end_colon (3) -- command: kill -TERM 48642; exit: 1 
 bash: line 0: kill: (48642) - No such process

Aug-27 15:13:07.200 [main] DEBUG nextflow.trace.WorkflowStatsObserver - Workflow completed > WorkflowStats[succeededCount=2; failedCount=4; ignoredCount=0; cachedCount=0; pendingCount=11; submittedCount=1; runningCount=-2; retriesCount=0; abortedCount=1; succeedDuration=172ms; failedDuration=49ms; cachedDuration=0ms;loadCpus=-2; loadMemory=0; peakRunning=2; peakCpus=2; peakMemory=0; ]
Aug-27 15:13:07.285 [main] DEBUG nextflow.CacheDB - Closing CacheDB done
Aug-27 15:13:07.299 [main] DEBUG nextflow.script.ScriptRunner - > Execution complete -- Goodbye
