Aug-27 14:36:25.858 [main] DEBUG nextflow.cli.Launcher - $> nextflow run fastaGrep.nf
Aug-27 14:36:26.006 [main] INFO  nextflow.cli.CmdRun - N E X T F L O W  ~  version 21.04.3
Aug-27 14:36:26.036 [main] INFO  nextflow.cli.CmdRun - Launching `fastaGrep.nf` [prickly_euler] - revision: 770412a069
Aug-27 14:36:26.163 [main] DEBUG nextflow.plugin.PluginsFacade - Setting up plugin manager > mode=prod; plugins-dir=/home/alexander/.nextflow/plugins
Aug-27 14:36:26.165 [main] DEBUG nextflow.plugin.PluginsFacade - Plugins default=[]
Aug-27 14:36:26.167 [main] DEBUG nextflow.plugin.PluginsFacade - Plugins local root: .nextflow/plr/empty
Aug-27 14:36:26.175 [main] INFO  org.pf4j.DefaultPluginStatusProvider - Enabled plugins: []
Aug-27 14:36:26.176 [main] INFO  org.pf4j.DefaultPluginStatusProvider - Disabled plugins: []
Aug-27 14:36:26.180 [main] INFO  org.pf4j.DefaultPluginManager - PF4J version 3.4.1 in 'deployment' mode
Aug-27 14:36:26.192 [main] INFO  org.pf4j.AbstractPluginManager - No plugins
Aug-27 14:36:26.268 [main] DEBUG nextflow.Session - Session uuid: d75de3d1-b00e-4dc9-b0bd-a537624087f2
Aug-27 14:36:26.269 [main] DEBUG nextflow.Session - Run name: prickly_euler
Aug-27 14:36:26.271 [main] DEBUG nextflow.Session - Executor pool size: 4
Aug-27 14:36:26.317 [main] DEBUG nextflow.cli.CmdRun - 
  Version: 21.04.3 build 5560
  Created: 21-07-2021 15:09 UTC (17:09 CEST)
  System: Linux 5.11.0-27-generic
  Runtime: Groovy 3.0.7 on OpenJDK 64-Bit Server VM 11.0.11+9-Ubuntu-0ubuntu2.20.04
  Encoding: UTF-8 (UTF-8)
  Process: 47501@alexander-VirtualBox [127.0.1.1]
  CPUs: 4 - Mem: 3.8 GB (131 MB) - Swap: 923.3 MB (906.2 MB)
Aug-27 14:36:26.342 [main] DEBUG nextflow.Session - Work-dir: /home/alexander/ngsGit/fastaGrepTest/fastagreptrial/work [ext2/ext3]
Aug-27 14:36:26.343 [main] DEBUG nextflow.Session - Script base path does not exist or is not a directory: /home/alexander/ngsGit/fastaGrepTest/fastagreptrial/bin
Aug-27 14:36:26.357 [main] DEBUG nextflow.executor.ExecutorFactory - Extension executors providers=[]
Aug-27 14:36:26.370 [main] DEBUG nextflow.Session - Observer factory: DefaultObserverFactory
Aug-27 14:36:26.499 [main] DEBUG nextflow.Session - Session start invoked
Aug-27 14:36:27.514 [main] DEBUG nextflow.script.ScriptRunner - > Launching execution
Aug-27 14:36:27.579 [main] DEBUG nextflow.Session - Workflow process names [dsl2]: end_colon, start_colon
Aug-27 14:36:27.702 [main] DEBUG nextflow.executor.ExecutorFactory - << taskConfig executor: null
Aug-27 14:36:27.703 [main] DEBUG nextflow.executor.ExecutorFactory - >> processorType: 'local'
Aug-27 14:36:27.708 [main] DEBUG nextflow.executor.Executor - [warm up] executor > local
Aug-27 14:36:27.721 [main] DEBUG n.processor.LocalPollingMonitor - Creating local task monitor for executor 'local' > cpus=4; memory=3.8 GB; capacity=4; pollInterval=100ms; dumpInterval=5m
Aug-27 14:36:27.847 [main] DEBUG nextflow.executor.ExecutorFactory - << taskConfig executor: null
Aug-27 14:36:27.848 [main] DEBUG nextflow.executor.ExecutorFactory - >> processorType: 'local'
Aug-27 14:36:27.854 [main] DEBUG nextflow.Session - Ignite dataflow network (3)
Aug-27 14:36:27.860 [main] DEBUG nextflow.processor.TaskProcessor - Starting process > start_colon
Aug-27 14:36:27.862 [main] DEBUG nextflow.processor.TaskProcessor - Starting process > end_colon
Aug-27 14:36:27.866 [main] DEBUG nextflow.script.ScriptRunner - > Await termination 
Aug-27 14:36:27.866 [main] DEBUG nextflow.Session - Session await
Aug-27 14:36:28.154 [Task submitter] DEBUG nextflow.executor.LocalTaskHandler - Launch cmd line: /bin/bash -ue .command.run
Aug-27 14:36:28.160 [Task submitter] INFO  nextflow.Session - [f2/f28e4a] Submitted process > end_colon (1)
Aug-27 14:36:28.171 [Task submitter] DEBUG nextflow.executor.LocalTaskHandler - Launch cmd line: /bin/bash -ue .command.run
Aug-27 14:36:28.172 [Task submitter] INFO  nextflow.Session - [bc/e7dd7d] Submitted process > start_colon (1)
Aug-27 14:36:28.241 [Task monitor] DEBUG n.processor.TaskPollingMonitor - Task completed > TaskHandler[id: 1; name: end_colon (1); status: COMPLETED; exit: 0; error: -; workDir: /home/alexander/ngsGit/fastaGrepTest/fastagreptrial/work/f2/f28e4a63b62025881a1a02cdf7100f]
Aug-27 14:36:28.260 [Task monitor] DEBUG n.util.BlockingThreadExecutorFactory - Thread pool name=FileTransfer; maxThreads=12; maxQueueSize=36; keepAlive=1m
Aug-27 14:36:28.273 [Task monitor] DEBUG n.processor.TaskPollingMonitor - Task completed > TaskHandler[id: 2; name: start_colon (1); status: COMPLETED; exit: 0; error: -; workDir: /home/alexander/ngsGit/fastaGrepTest/fastagreptrial/work/bc/e7dd7d75ddeab1560fef9f1810b8f3]
Aug-27 14:36:28.284 [main] DEBUG nextflow.Session - Session await > all process finished
Aug-27 14:36:28.289 [main] DEBUG nextflow.Session - Session await > all barriers passed
Aug-27 14:36:28.299 [main] DEBUG nextflow.trace.WorkflowStatsObserver - Workflow completed > WorkflowStats[succeededCount=2; failedCount=0; ignoredCount=0; cachedCount=0; pendingCount=0; submittedCount=0; runningCount=0; retriesCount=0; abortedCount=0; succeedDuration=14ms; failedDuration=0ms; cachedDuration=0ms;loadCpus=0; loadMemory=0; peakRunning=1; peakCpus=1; peakMemory=0; ]
Aug-27 14:36:28.381 [main] DEBUG nextflow.CacheDB - Closing CacheDB done
Aug-27 14:36:28.400 [main] DEBUG nextflow.script.ScriptRunner - > Execution complete -- Goodbye
