Aug-27 15:03:21.019 [main] DEBUG nextflow.cli.Launcher - $> nextflow run fastaGrep.nf
Aug-27 15:03:21.181 [main] INFO  nextflow.cli.CmdRun - N E X T F L O W  ~  version 21.04.3
Aug-27 15:03:21.210 [main] INFO  nextflow.cli.CmdRun - Launching `fastaGrep.nf` [soggy_kowalevski] - revision: e9bb66c991
Aug-27 15:03:21.315 [main] DEBUG nextflow.plugin.PluginsFacade - Setting up plugin manager > mode=prod; plugins-dir=/home/alexander/.nextflow/plugins
Aug-27 15:03:21.316 [main] DEBUG nextflow.plugin.PluginsFacade - Plugins default=[]
Aug-27 15:03:21.318 [main] DEBUG nextflow.plugin.PluginsFacade - Plugins local root: .nextflow/plr/empty
Aug-27 15:03:21.327 [main] INFO  org.pf4j.DefaultPluginStatusProvider - Enabled plugins: []
Aug-27 15:03:21.328 [main] INFO  org.pf4j.DefaultPluginStatusProvider - Disabled plugins: []
Aug-27 15:03:21.333 [main] INFO  org.pf4j.DefaultPluginManager - PF4J version 3.4.1 in 'deployment' mode
Aug-27 15:03:21.346 [main] INFO  org.pf4j.AbstractPluginManager - No plugins
Aug-27 15:03:21.407 [main] DEBUG nextflow.Session - Session uuid: 90aa9c47-e36a-4395-8529-c11ce9c8d2f2
Aug-27 15:03:21.407 [main] DEBUG nextflow.Session - Run name: soggy_kowalevski
Aug-27 15:03:21.409 [main] DEBUG nextflow.Session - Executor pool size: 4
Aug-27 15:03:21.452 [main] DEBUG nextflow.cli.CmdRun - 
  Version: 21.04.3 build 5560
  Created: 21-07-2021 15:09 UTC (17:09 CEST)
  System: Linux 5.11.0-27-generic
  Runtime: Groovy 3.0.7 on OpenJDK 64-Bit Server VM 11.0.11+9-Ubuntu-0ubuntu2.20.04
  Encoding: UTF-8 (UTF-8)
  Process: 48024@alexander-VirtualBox [127.0.1.1]
  CPUs: 4 - Mem: 3.8 GB (282.3 MB) - Swap: 923.3 MB (901.1 MB)
Aug-27 15:03:21.479 [main] DEBUG nextflow.Session - Work-dir: /home/alexander/ngsGit/fastaGrepTest/fastagreptrial/work [ext2/ext3]
Aug-27 15:03:21.480 [main] DEBUG nextflow.Session - Script base path does not exist or is not a directory: /home/alexander/ngsGit/fastaGrepTest/fastagreptrial/bin
Aug-27 15:03:21.494 [main] DEBUG nextflow.executor.ExecutorFactory - Extension executors providers=[]
Aug-27 15:03:21.540 [main] DEBUG nextflow.Session - Observer factory: DefaultObserverFactory
Aug-27 15:03:21.662 [main] DEBUG nextflow.Session - Session start invoked
Aug-27 15:03:22.678 [main] DEBUG nextflow.script.ScriptRunner - > Launching execution
Aug-27 15:03:22.730 [main] DEBUG nextflow.Session - Workflow process names [dsl2]: end_colon, split_file, start_colon
Aug-27 15:03:22.842 [main] DEBUG nextflow.executor.ExecutorFactory - << taskConfig executor: null
Aug-27 15:03:22.842 [main] DEBUG nextflow.executor.ExecutorFactory - >> processorType: 'local'
Aug-27 15:03:22.847 [main] DEBUG nextflow.executor.Executor - [warm up] executor > local
Aug-27 15:03:22.853 [main] DEBUG n.processor.LocalPollingMonitor - Creating local task monitor for executor 'local' > cpus=4; memory=3.8 GB; capacity=4; pollInterval=100ms; dumpInterval=5m
Aug-27 15:03:22.991 [main] DEBUG nextflow.executor.ExecutorFactory - << taskConfig executor: null
Aug-27 15:03:22.992 [main] DEBUG nextflow.executor.ExecutorFactory - >> processorType: 'local'
Aug-27 15:03:23.000 [main] DEBUG nextflow.executor.ExecutorFactory - << taskConfig executor: null
Aug-27 15:03:23.001 [main] DEBUG nextflow.executor.ExecutorFactory - >> processorType: 'local'
Aug-27 15:03:23.005 [main] DEBUG nextflow.Session - Ignite dataflow network (4)
Aug-27 15:03:23.012 [main] DEBUG nextflow.processor.TaskProcessor - Starting process > split_file
Aug-27 15:03:23.012 [main] DEBUG nextflow.processor.TaskProcessor - Starting process > start_colon
Aug-27 15:03:23.017 [main] DEBUG nextflow.processor.TaskProcessor - Starting process > end_colon
Aug-27 15:03:23.019 [main] DEBUG nextflow.script.ScriptRunner - > Await termination 
Aug-27 15:03:23.022 [main] DEBUG nextflow.Session - Session await
Aug-27 15:03:23.252 [Task submitter] DEBUG nextflow.executor.LocalTaskHandler - Launch cmd line: /bin/bash -ue .command.run
Aug-27 15:03:23.259 [Task submitter] INFO  nextflow.Session - [76/8e22a1] Submitted process > split_file (1)
Aug-27 15:03:23.300 [Task monitor] DEBUG n.processor.TaskPollingMonitor - Task completed > TaskHandler[id: 1; name: split_file (1); status: COMPLETED; exit: 0; error: -; workDir: /home/alexander/ngsGit/fastaGrepTest/fastagreptrial/work/76/8e22a1debabbfe1934a823211898be]
Aug-27 15:03:23.372 [Task submitter] DEBUG nextflow.executor.LocalTaskHandler - Launch cmd line: /bin/bash -ue .command.run
Aug-27 15:03:23.382 [Task submitter] INFO  nextflow.Session - [ec/72defc] Submitted process > start_colon (1)
Aug-27 15:03:23.394 [Task submitter] DEBUG nextflow.executor.LocalTaskHandler - Launch cmd line: /bin/bash -ue .command.run
Aug-27 15:03:23.406 [Task submitter] INFO  nextflow.Session - [9d/9efb5f] Submitted process > end_colon (1)
Aug-27 15:03:23.444 [Task submitter] DEBUG nextflow.executor.LocalTaskHandler - Launch cmd line: /bin/bash -ue .command.run
Aug-27 15:03:23.452 [Task submitter] INFO  nextflow.Session - [2c/48dded] Submitted process > end_colon (2)
Aug-27 15:03:23.459 [Task monitor] DEBUG n.processor.TaskPollingMonitor - Task completed > TaskHandler[id: 2; name: start_colon (1); status: COMPLETED; exit: 1; error: -; workDir: /home/alexander/ngsGit/fastaGrepTest/fastagreptrial/work/ec/72defc22f4601ecc5f26e00d6d3739]
Aug-27 15:03:23.461 [Task submitter] DEBUG nextflow.executor.LocalTaskHandler - Launch cmd line: /bin/bash -ue .command.run
Aug-27 15:03:23.462 [Task submitter] INFO  nextflow.Session - [3f/3935b8] Submitted process > start_colon (2)
Aug-27 15:03:23.478 [Task submitter] DEBUG nextflow.executor.LocalTaskHandler - Launch cmd line: /bin/bash -ue .command.run
Aug-27 15:03:23.485 [Task submitter] INFO  nextflow.Session - [53/4a2b74] Submitted process > end_colon (6)
Aug-27 15:03:23.496 [Task monitor] ERROR nextflow.processor.TaskProcessor - Error executing process > 'start_colon (1)'

Caused by:
  Process `start_colon (1)` terminated with an error exit status (1)

Command executed:

  grep -o -i "ATG" sequences.fasta.line00 > grepresult
  cat grepresult | wc -l > sequences.fasta.line00.startCount

Command exit status:
  1

Command output:
  (empty)

Work dir:
  /home/alexander/ngsGit/fastaGrepTest/fastagreptrial/work/ec/72defc22f4601ecc5f26e00d6d3739

Tip: you can replicate the issue by changing to the process work dir and entering the command `bash .command.run`
Aug-27 15:03:23.503 [Task monitor] DEBUG nextflow.Session - Session aborted -- Cause: Process `start_colon (1)` terminated with an error exit status (1)
Aug-27 15:03:23.526 [main] DEBUG nextflow.Session - Session await > all process finished
Aug-27 15:03:23.526 [main] DEBUG nextflow.Session - Session await > all barriers passed
Aug-27 15:03:23.549 [Task monitor] DEBUG n.processor.TaskPollingMonitor - Task completed > TaskHandler[id: 3; name: end_colon (1); status: COMPLETED; exit: 1; error: -; workDir: /home/alexander/ngsGit/fastaGrepTest/fastagreptrial/work/9d/9efb5fc7ee0badf0553043efdca987]
Aug-27 15:03:23.554 [main] WARN  n.processor.TaskPollingMonitor - Killing pending tasks (3)
Aug-27 15:03:23.578 [main] DEBUG nextflow.executor.LocalTaskHandler - Unable to kill end_colon (2) -- command: kill -TERM 48162; exit: 1 
 bash: line 0: kill: (48162) - No such process

Aug-27 15:03:23.605 [main] DEBUG nextflow.executor.LocalTaskHandler - Unable to kill start_colon (2) -- command: kill -TERM 48163; exit: 1 
 bash: line 0: kill: (48163) - No such process

Aug-27 15:03:23.614 [main] DEBUG nextflow.executor.LocalTaskHandler - Unable to kill end_colon (6) -- command: kill -TERM 48171; exit: 1 
 bash: line 0: kill: (48171) - No such process

Aug-27 15:03:23.621 [main] DEBUG nextflow.trace.WorkflowStatsObserver - Workflow completed > WorkflowStats[succeededCount=1; failedCount=2; ignoredCount=0; cachedCount=0; pendingCount=11; submittedCount=3; runningCount=-3; retriesCount=0; abortedCount=3; succeedDuration=22ms; failedDuration=31ms; cachedDuration=0ms;loadCpus=-3; loadMemory=0; peakRunning=1; peakCpus=1; peakMemory=0; ]
Aug-27 15:03:23.715 [main] DEBUG nextflow.CacheDB - Closing CacheDB done
Aug-27 15:03:23.731 [main] DEBUG nextflow.script.ScriptRunner - > Execution complete -- Goodbye
