Aug-27 15:24:43.714 [main] DEBUG nextflow.cli.Launcher - $> nextflow run fastaGrep.nf
Aug-27 15:24:43.857 [main] INFO  nextflow.cli.CmdRun - N E X T F L O W  ~  version 21.04.3
Aug-27 15:24:43.889 [main] INFO  nextflow.cli.CmdRun - Launching `fastaGrep.nf` [tender_lovelace] - revision: e465ac7115
Aug-27 15:24:44.005 [main] DEBUG nextflow.plugin.PluginsFacade - Setting up plugin manager > mode=prod; plugins-dir=/home/alexander/.nextflow/plugins
Aug-27 15:24:44.012 [main] DEBUG nextflow.plugin.PluginsFacade - Plugins default=[]
Aug-27 15:24:44.016 [main] DEBUG nextflow.plugin.PluginsFacade - Plugins local root: .nextflow/plr/empty
Aug-27 15:24:44.026 [main] INFO  org.pf4j.DefaultPluginStatusProvider - Enabled plugins: []
Aug-27 15:24:44.027 [main] INFO  org.pf4j.DefaultPluginStatusProvider - Disabled plugins: []
Aug-27 15:24:44.031 [main] INFO  org.pf4j.DefaultPluginManager - PF4J version 3.4.1 in 'deployment' mode
Aug-27 15:24:44.049 [main] INFO  org.pf4j.AbstractPluginManager - No plugins
Aug-27 15:24:44.136 [main] DEBUG nextflow.Session - Session uuid: 1588764f-20fa-4dd0-ba37-804209cf5522
Aug-27 15:24:44.136 [main] DEBUG nextflow.Session - Run name: tender_lovelace
Aug-27 15:24:44.138 [main] DEBUG nextflow.Session - Executor pool size: 4
Aug-27 15:24:44.182 [main] DEBUG nextflow.cli.CmdRun - 
  Version: 21.04.3 build 5560
  Created: 21-07-2021 15:09 UTC (17:09 CEST)
  System: Linux 5.11.0-27-generic
  Runtime: Groovy 3.0.7 on OpenJDK 64-Bit Server VM 11.0.11+9-Ubuntu-0ubuntu2.20.04
  Encoding: UTF-8 (UTF-8)
  Process: 49146@alexander-VirtualBox [127.0.1.1]
  CPUs: 4 - Mem: 3.8 GB (285.2 MB) - Swap: 923.3 MB (888 MB)
Aug-27 15:24:44.212 [main] DEBUG nextflow.Session - Work-dir: /home/alexander/ngsGit/fastaGrepTest/fastagreptrial/work [ext2/ext3]
Aug-27 15:24:44.212 [main] DEBUG nextflow.Session - Script base path does not exist or is not a directory: /home/alexander/ngsGit/fastaGrepTest/fastagreptrial/bin
Aug-27 15:24:44.226 [main] DEBUG nextflow.executor.ExecutorFactory - Extension executors providers=[]
Aug-27 15:24:44.247 [main] DEBUG nextflow.Session - Observer factory: DefaultObserverFactory
Aug-27 15:24:44.395 [main] DEBUG nextflow.Session - Session start invoked
Aug-27 15:24:45.727 [main] DEBUG nextflow.script.ScriptRunner - > Launching execution
Aug-27 15:24:45.771 [main] DEBUG nextflow.Session - Workflow process names [dsl2]: calculate_start_total, ausgabe, end_colon, split_file, start_colon, calculate_end_total
Aug-27 15:24:45.883 [main] DEBUG nextflow.executor.ExecutorFactory - << taskConfig executor: null
Aug-27 15:24:45.883 [main] DEBUG nextflow.executor.ExecutorFactory - >> processorType: 'local'
Aug-27 15:24:45.890 [main] DEBUG nextflow.executor.Executor - [warm up] executor > local
Aug-27 15:24:45.896 [main] DEBUG n.processor.LocalPollingMonitor - Creating local task monitor for executor 'local' > cpus=4; memory=3.8 GB; capacity=4; pollInterval=100ms; dumpInterval=5m
Aug-27 15:24:46.066 [main] DEBUG nextflow.executor.ExecutorFactory - << taskConfig executor: null
Aug-27 15:24:46.067 [main] DEBUG nextflow.executor.ExecutorFactory - >> processorType: 'local'
Aug-27 15:24:46.077 [main] DEBUG nextflow.executor.ExecutorFactory - << taskConfig executor: null
Aug-27 15:24:46.077 [main] DEBUG nextflow.executor.ExecutorFactory - >> processorType: 'local'
Aug-27 15:24:46.100 [main] DEBUG nextflow.executor.ExecutorFactory - << taskConfig executor: null
Aug-27 15:24:46.101 [main] DEBUG nextflow.executor.ExecutorFactory - >> processorType: 'local'
Aug-27 15:24:46.106 [main] DEBUG nextflow.executor.ExecutorFactory - << taskConfig executor: null
Aug-27 15:24:46.107 [main] DEBUG nextflow.executor.ExecutorFactory - >> processorType: 'local'
Aug-27 15:24:46.111 [main] DEBUG nextflow.executor.ExecutorFactory - << taskConfig executor: null
Aug-27 15:24:46.112 [main] DEBUG nextflow.executor.ExecutorFactory - >> processorType: 'local'
Aug-27 15:24:46.116 [main] DEBUG nextflow.Session - Ignite dataflow network (7)
Aug-27 15:24:46.122 [main] DEBUG nextflow.processor.TaskProcessor - Starting process > split_file
Aug-27 15:24:46.123 [main] DEBUG nextflow.processor.TaskProcessor - Starting process > start_colon
Aug-27 15:24:46.124 [main] DEBUG nextflow.processor.TaskProcessor - Starting process > end_colon
Aug-27 15:24:46.126 [main] DEBUG nextflow.processor.TaskProcessor - Starting process > calculate_start_total
Aug-27 15:24:46.127 [main] DEBUG nextflow.processor.TaskProcessor - Starting process > calculate_end_total
Aug-27 15:24:46.127 [main] DEBUG nextflow.processor.TaskProcessor - Starting process > ausgabe
Aug-27 15:24:46.128 [main] DEBUG nextflow.script.ScriptRunner - > Await termination 
Aug-27 15:24:46.128 [main] DEBUG nextflow.Session - Session await
Aug-27 15:24:46.329 [Task submitter] DEBUG nextflow.executor.LocalTaskHandler - Launch cmd line: /bin/bash -ue .command.run
Aug-27 15:24:46.337 [Task submitter] INFO  nextflow.Session - [d7/f533d8] Submitted process > split_file (1)
Aug-27 15:24:46.374 [Task monitor] DEBUG n.processor.TaskPollingMonitor - Task completed > TaskHandler[id: 1; name: split_file (1); status: COMPLETED; exit: 0; error: -; workDir: /home/alexander/ngsGit/fastaGrepTest/fastagreptrial/work/d7/f533d87b2c1766fffa62c7c34fd017]
Aug-27 15:24:46.429 [Task submitter] DEBUG nextflow.executor.LocalTaskHandler - Launch cmd line: /bin/bash -ue .command.run
Aug-27 15:24:46.435 [Task submitter] INFO  nextflow.Session - [47/95dc56] Submitted process > start_colon (3)
Aug-27 15:24:46.506 [Task submitter] DEBUG nextflow.executor.LocalTaskHandler - Launch cmd line: /bin/bash -ue .command.run
Aug-27 15:24:46.506 [Task submitter] INFO  nextflow.Session - [d6/c3becb] Submitted process > start_colon (1)
Aug-27 15:24:46.534 [Task submitter] DEBUG nextflow.executor.LocalTaskHandler - Launch cmd line: /bin/bash -ue .command.run
Aug-27 15:24:46.535 [Task submitter] INFO  nextflow.Session - [82/181b63] Submitted process > start_colon (2)
Aug-27 15:24:46.537 [Task monitor] DEBUG n.processor.TaskPollingMonitor - Task completed > TaskHandler[id: 5; name: start_colon (3); status: COMPLETED; exit: 1; error: -; workDir: /home/alexander/ngsGit/fastaGrepTest/fastagreptrial/work/47/95dc5647b51272b5fe7cdd3b11c431]
Aug-27 15:24:46.555 [Task submitter] DEBUG nextflow.executor.LocalTaskHandler - Launch cmd line: /bin/bash -ue .command.run
Aug-27 15:24:46.556 [Task submitter] INFO  nextflow.Session - [ef/61d8b3] Submitted process > end_colon (1)
Aug-27 15:24:46.561 [Task submitter] DEBUG nextflow.executor.LocalTaskHandler - Launch cmd line: /bin/bash -ue .command.run
Aug-27 15:24:46.562 [Task submitter] INFO  nextflow.Session - [f2/c2c626] Submitted process > end_colon (4)
Aug-27 15:24:46.577 [Task monitor] ERROR nextflow.processor.TaskProcessor - Error executing process > 'start_colon (3)'

Caused by:
  Process `start_colon (3)` terminated with an error exit status (1)

Command executed:

  grep -o -i "ATG" sequences.fasta.line02 > grepresult
  cat grepresult | wc -l > sequences.fasta.line02.startCount

Command exit status:
  1

Command output:
  (empty)

Work dir:
  /home/alexander/ngsGit/fastaGrepTest/fastagreptrial/work/47/95dc5647b51272b5fe7cdd3b11c431

Tip: you can try to figure out what's wrong by changing to the process work dir and showing the script file named `.command.sh`
Aug-27 15:24:46.608 [Task monitor] DEBUG nextflow.Session - Session aborted -- Cause: Process `start_colon (3)` terminated with an error exit status (1)
Aug-27 15:24:46.629 [Task monitor] DEBUG nextflow.Session - The following nodes are still active:
[process] calculate_start_total
  status=ACTIVE
  port 0: (value) OPEN  ; channel: infiles
  port 1: (cntrl) -     ; channel: $

[process] calculate_end_total
  status=ACTIVE
  port 0: (value) OPEN  ; channel: infiles
  port 1: (cntrl) -     ; channel: $

[process] ausgabe
  status=ACTIVE
  port 0: (value) OPEN  ; channel: startfile
  port 1: (value) OPEN  ; channel: endfile
  port 2: (cntrl) -     ; channel: $

Aug-27 15:24:46.641 [main] DEBUG nextflow.Session - Session await > all process finished
Aug-27 15:24:46.641 [main] DEBUG nextflow.Session - Session await > all barriers passed
Aug-27 15:24:46.655 [Task monitor] DEBUG n.processor.TaskPollingMonitor - Task completed > TaskHandler[id: 3; name: start_colon (1); status: COMPLETED; exit: 1; error: -; workDir: /home/alexander/ngsGit/fastaGrepTest/fastagreptrial/work/d6/c3becb1760f985cf1dd36d358022b7]
Aug-27 15:24:46.660 [main] WARN  n.processor.TaskPollingMonitor - Killing pending tasks (3)
Aug-27 15:24:46.678 [main] DEBUG nextflow.executor.LocalTaskHandler - Unable to kill start_colon (2) -- command: kill -TERM 49278; exit: 1 
 bash: line 0: kill: (49278) - No such process

Aug-27 15:24:46.682 [main] DEBUG nextflow.executor.LocalTaskHandler - Unable to kill end_colon (1) -- command: kill -TERM 49281; exit: 1 
 bash: line 0: kill: (49281) - No such process

Aug-27 15:24:46.712 [main] DEBUG nextflow.executor.LocalTaskHandler - Unable to kill end_colon (4) -- command: kill -TERM 49288; exit: 1 
 bash: line 0: kill: (49288) - No such process

Aug-27 15:24:46.714 [main] DEBUG nextflow.trace.WorkflowStatsObserver - Workflow completed > WorkflowStats[succeededCount=1; failedCount=2; ignoredCount=0; cachedCount=0; pendingCount=11; submittedCount=3; runningCount=-2; retriesCount=0; abortedCount=2; succeedDuration=6ms; failedDuration=66ms; cachedDuration=0ms;loadCpus=-2; loadMemory=0; peakRunning=1; peakCpus=1; peakMemory=0; ]
Aug-27 15:24:46.798 [main] DEBUG nextflow.CacheDB - Closing CacheDB done
Aug-27 15:24:46.814 [main] DEBUG nextflow.script.ScriptRunner - > Execution complete -- Goodbye
