Aug-27 15:27:53.235 [main] DEBUG nextflow.cli.Launcher - $> nextflow run fastaGrep.nf
Aug-27 15:27:53.400 [main] INFO  nextflow.cli.CmdRun - N E X T F L O W  ~  version 21.04.3
Aug-27 15:27:53.437 [main] INFO  nextflow.cli.CmdRun - Launching `fastaGrep.nf` [friendly_edison] - revision: bd6b02f9f1
Aug-27 15:27:53.547 [main] DEBUG nextflow.plugin.PluginsFacade - Setting up plugin manager > mode=prod; plugins-dir=/home/alexander/.nextflow/plugins
Aug-27 15:27:53.549 [main] DEBUG nextflow.plugin.PluginsFacade - Plugins default=[]
Aug-27 15:27:53.552 [main] DEBUG nextflow.plugin.PluginsFacade - Plugins local root: .nextflow/plr/empty
Aug-27 15:27:53.563 [main] INFO  org.pf4j.DefaultPluginStatusProvider - Enabled plugins: []
Aug-27 15:27:53.564 [main] INFO  org.pf4j.DefaultPluginStatusProvider - Disabled plugins: []
Aug-27 15:27:53.569 [main] INFO  org.pf4j.DefaultPluginManager - PF4J version 3.4.1 in 'deployment' mode
Aug-27 15:27:53.587 [main] INFO  org.pf4j.AbstractPluginManager - No plugins
Aug-27 15:27:53.674 [main] DEBUG nextflow.Session - Session uuid: f8c412ec-bbe6-4cc8-862e-41009d00a3ba
Aug-27 15:27:53.674 [main] DEBUG nextflow.Session - Run name: friendly_edison
Aug-27 15:27:53.676 [main] DEBUG nextflow.Session - Executor pool size: 4
Aug-27 15:27:53.721 [main] DEBUG nextflow.cli.CmdRun - 
  Version: 21.04.3 build 5560
  Created: 21-07-2021 15:09 UTC (17:09 CEST)
  System: Linux 5.11.0-27-generic
  Runtime: Groovy 3.0.7 on OpenJDK 64-Bit Server VM 11.0.11+9-Ubuntu-0ubuntu2.20.04
  Encoding: UTF-8 (UTF-8)
  Process: 49602@alexander-VirtualBox [127.0.1.1]
  CPUs: 4 - Mem: 3.8 GB (266.1 MB) - Swap: 923.3 MB (888 MB)
Aug-27 15:27:53.750 [main] DEBUG nextflow.Session - Work-dir: /home/alexander/ngsGit/fastaGrepTest/fastagreptrial/work [ext2/ext3]
Aug-27 15:27:53.751 [main] DEBUG nextflow.Session - Script base path does not exist or is not a directory: /home/alexander/ngsGit/fastaGrepTest/fastagreptrial/bin
Aug-27 15:27:53.764 [main] DEBUG nextflow.executor.ExecutorFactory - Extension executors providers=[]
Aug-27 15:27:53.780 [main] DEBUG nextflow.Session - Observer factory: DefaultObserverFactory
Aug-27 15:27:53.921 [main] DEBUG nextflow.Session - Session start invoked
Aug-27 15:27:55.184 [main] DEBUG nextflow.script.ScriptRunner - > Launching execution
Aug-27 15:27:55.237 [main] DEBUG nextflow.Session - Workflow process names [dsl2]: calculate_start_total, ausgabe, end_colon, split_file, start_colon, calculate_end_total
Aug-27 15:27:55.349 [main] DEBUG nextflow.executor.ExecutorFactory - << taskConfig executor: null
Aug-27 15:27:55.350 [main] DEBUG nextflow.executor.ExecutorFactory - >> processorType: 'local'
Aug-27 15:27:55.356 [main] DEBUG nextflow.executor.Executor - [warm up] executor > local
Aug-27 15:27:55.362 [main] DEBUG n.processor.LocalPollingMonitor - Creating local task monitor for executor 'local' > cpus=4; memory=3.8 GB; capacity=4; pollInterval=100ms; dumpInterval=5m
Aug-27 15:27:55.526 [main] DEBUG nextflow.Session - Session aborted -- Cause: Unknown variable 'infile'
Aug-27 15:27:55.560 [main] DEBUG nextflow.Session - The following nodes are still active:
  [operator] flatten

Aug-27 15:27:55.566 [main] ERROR nextflow.cli.Launcher - @unknown
groovy.lang.MissingPropertyException: Unknown variable 'infile'
	at java.base/jdk.internal.reflect.NativeConstructorAccessorImpl.newInstance0(Native Method)
	at java.base/jdk.internal.reflect.NativeConstructorAccessorImpl.newInstance(NativeConstructorAccessorImpl.java:62)
	at java.base/jdk.internal.reflect.DelegatingConstructorAccessorImpl.newInstance(DelegatingConstructorAccessorImpl.java:45)
	at java.base/java.lang.reflect.Constructor.newInstance(Constructor.java:490)
	at org.codehaus.groovy.reflection.CachedConstructor.invoke(CachedConstructor.java:72)
	at org.codehaus.groovy.reflection.CachedConstructor.doConstructorInvoke(CachedConstructor.java:59)
	at org.codehaus.groovy.runtime.callsite.ConstructorSite$ConstructorSiteNoUnwrap.callConstructor(ConstructorSite.java:84)
	at org.codehaus.groovy.runtime.callsite.CallSiteArray.defaultCallConstructor(CallSiteArray.java:59)
	at org.codehaus.groovy.runtime.callsite.AbstractCallSite.callConstructor(AbstractCallSite.java:263)
	at org.codehaus.groovy.runtime.callsite.AbstractCallSite.callConstructor(AbstractCallSite.java:295)
	at nextflow.script.ProcessConfig.getProperty(ProcessConfig.groovy:276)
	at org.codehaus.groovy.runtime.InvokerHelper.getProperty(InvokerHelper.java:194)
	at groovy.lang.Closure.getPropertyTryThese(Closure.java:320)
	at groovy.lang.Closure.getPropertyDelegateFirst(Closure.java:310)
	at groovy.lang.Closure.getProperty(Closure.java:296)
	at org.codehaus.groovy.runtime.callsite.PogoGetPropertySite.getProperty(PogoGetPropertySite.java:49)
	at org.codehaus.groovy.runtime.callsite.AbstractCallSite.callGroovyObjectGetProperty(AbstractCallSite.java:341)
	at Script_dc1d5070$_runScript_closure2.doCall(Script_dc1d5070:23)
	at Script_dc1d5070$_runScript_closure2.doCall(Script_dc1d5070)
	at java.base/jdk.internal.reflect.NativeMethodAccessorImpl.invoke0(Native Method)
	at java.base/jdk.internal.reflect.NativeMethodAccessorImpl.invoke(NativeMethodAccessorImpl.java:62)
	at java.base/jdk.internal.reflect.DelegatingMethodAccessorImpl.invoke(DelegatingMethodAccessorImpl.java:43)
	at java.base/java.lang.reflect.Method.invoke(Method.java:566)
	at org.codehaus.groovy.reflection.CachedMethod.invoke(CachedMethod.java:107)
	at groovy.lang.MetaMethod.doMethodInvoke(MetaMethod.java:323)
	at org.codehaus.groovy.runtime.metaclass.ClosureMetaClass.invokeMethod(ClosureMetaClass.java:263)
	at groovy.lang.MetaClassImpl.invokeMethod(MetaClassImpl.java:1035)
	at groovy.lang.Closure.call(Closure.java:412)
	at groovy.lang.Closure.call(Closure.java:406)
	at nextflow.script.ProcessDef.initialize(ProcessDef.groovy:111)
	at nextflow.script.ProcessDef.run(ProcessDef.groovy:165)
	at nextflow.script.BindableDef.invoke_a(BindableDef.groovy:52)
	at nextflow.script.ComponentDef.invoke_o(ComponentDef.groovy:41)
	at nextflow.script.WorkflowBinding.invokeMethod(WorkflowBinding.groovy:95)
	at org.codehaus.groovy.runtime.metaclass.ClosureMetaClass.invokeOnDelegationObjects(ClosureMetaClass.java:397)
	at org.codehaus.groovy.runtime.metaclass.ClosureMetaClass.invokeMethod(ClosureMetaClass.java:339)
	at org.codehaus.groovy.runtime.callsite.PogoMetaClassSite.callCurrent(PogoMetaClassSite.java:61)
	at org.codehaus.groovy.runtime.callsite.CallSiteArray.defaultCallCurrent(CallSiteArray.java:51)
	at org.codehaus.groovy.runtime.callsite.AbstractCallSite.callCurrent(AbstractCallSite.java:171)
	at org.codehaus.groovy.runtime.callsite.AbstractCallSite.callCurrent(AbstractCallSite.java:194)
	at Script_dc1d5070$_runScript_closure7$_closure15.doCall(Script_dc1d5070:103)
	at java.base/jdk.internal.reflect.NativeMethodAccessorImpl.invoke0(Native Method)
	at java.base/jdk.internal.reflect.NativeMethodAccessorImpl.invoke(NativeMethodAccessorImpl.java:62)
	at java.base/jdk.internal.reflect.DelegatingMethodAccessorImpl.invoke(DelegatingMethodAccessorImpl.java:43)
	at java.base/java.lang.reflect.Method.invoke(Method.java:566)
	at org.codehaus.groovy.reflection.CachedMethod.invoke(CachedMethod.java:107)
	at groovy.lang.MetaMethod.doMethodInvoke(MetaMethod.java:323)
	at org.codehaus.groovy.runtime.metaclass.ClosureMetaClass.invokeMethod(ClosureMetaClass.java:263)
	at groovy.lang.MetaClassImpl.invokeMethod(MetaClassImpl.java:1035)
	at groovy.lang.Closure.call(Closure.java:412)
	at groovy.lang.Closure.call(Closure.java:406)
	at nextflow.script.WorkflowDef.run0(WorkflowDef.groovy:186)
	at nextflow.script.WorkflowDef.run(WorkflowDef.groovy:170)
	at nextflow.script.BindableDef.invoke_a(BindableDef.groovy:52)
	at nextflow.script.ChainableDef$invoke_a.call(Unknown Source)
	at org.codehaus.groovy.runtime.callsite.CallSiteArray.defaultCall(CallSiteArray.java:47)
	at org.codehaus.groovy.runtime.callsite.AbstractCallSite.call(AbstractCallSite.java:125)
	at org.codehaus.groovy.runtime.callsite.AbstractCallSite.call(AbstractCallSite.java:139)
	at nextflow.script.BaseScript.runDsl2(BaseScript.groovy:191)
	at nextflow.script.BaseScript.run(BaseScript.groovy:200)
	at nextflow.script.ScriptParser.runScript(ScriptParser.groovy:221)
	at nextflow.script.ScriptRunner.run(ScriptRunner.groovy:212)
	at nextflow.script.ScriptRunner.execute(ScriptRunner.groovy:120)
	at nextflow.cli.CmdRun.run(CmdRun.groovy:302)
	at nextflow.cli.Launcher.run(Launcher.groovy:475)
	at nextflow.cli.Launcher.main(Launcher.groovy:657)
