Aug-27 15:22:19.227 [main] DEBUG nextflow.cli.Launcher - $> nextflow run fastaGrep.nf
Aug-27 15:22:19.374 [main] INFO  nextflow.cli.CmdRun - N E X T F L O W  ~  version 21.04.3
Aug-27 15:22:19.406 [main] INFO  nextflow.cli.CmdRun - Launching `fastaGrep.nf` [furious_linnaeus] - revision: 836d23bdb1
Aug-27 15:22:19.536 [main] DEBUG nextflow.plugin.PluginsFacade - Setting up plugin manager > mode=prod; plugins-dir=/home/alexander/.nextflow/plugins
Aug-27 15:22:19.538 [main] DEBUG nextflow.plugin.PluginsFacade - Plugins default=[]
Aug-27 15:22:19.540 [main] DEBUG nextflow.plugin.PluginsFacade - Plugins local root: .nextflow/plr/empty
Aug-27 15:22:19.552 [main] INFO  org.pf4j.DefaultPluginStatusProvider - Enabled plugins: []
Aug-27 15:22:19.555 [main] INFO  org.pf4j.DefaultPluginStatusProvider - Disabled plugins: []
Aug-27 15:22:19.559 [main] INFO  org.pf4j.DefaultPluginManager - PF4J version 3.4.1 in 'deployment' mode
Aug-27 15:22:19.572 [main] INFO  org.pf4j.AbstractPluginManager - No plugins
Aug-27 15:22:19.651 [main] DEBUG nextflow.Session - Session uuid: b2380c44-eaea-4d7f-9db5-ed3d8d0b4315
Aug-27 15:22:19.651 [main] DEBUG nextflow.Session - Run name: furious_linnaeus
Aug-27 15:22:19.654 [main] DEBUG nextflow.Session - Executor pool size: 4
Aug-27 15:22:19.706 [main] DEBUG nextflow.cli.CmdRun - 
  Version: 21.04.3 build 5560
  Created: 21-07-2021 15:09 UTC (17:09 CEST)
  System: Linux 5.11.0-27-generic
  Runtime: Groovy 3.0.7 on OpenJDK 64-Bit Server VM 11.0.11+9-Ubuntu-0ubuntu2.20.04
  Encoding: UTF-8 (UTF-8)
  Process: 48918@alexander-VirtualBox [127.0.1.1]
  CPUs: 4 - Mem: 3.8 GB (269 MB) - Swap: 923.3 MB (888 MB)
Aug-27 15:22:19.735 [main] DEBUG nextflow.Session - Work-dir: /home/alexander/ngsGit/fastaGrepTest/fastagreptrial/work [ext2/ext3]
Aug-27 15:22:19.735 [main] DEBUG nextflow.Session - Script base path does not exist or is not a directory: /home/alexander/ngsGit/fastaGrepTest/fastagreptrial/bin
Aug-27 15:22:19.747 [main] DEBUG nextflow.executor.ExecutorFactory - Extension executors providers=[]
Aug-27 15:22:19.763 [main] DEBUG nextflow.Session - Observer factory: DefaultObserverFactory
Aug-27 15:22:19.935 [main] DEBUG nextflow.Session - Session start invoked
Aug-27 15:22:21.186 [main] DEBUG nextflow.script.ScriptRunner - > Launching execution
Aug-27 15:22:21.232 [main] DEBUG nextflow.Session - Workflow process names [dsl2]: calculate_start_total, ausgabe, end_colon, split_file, start_colon, calculate_end_total
Aug-27 15:22:21.339 [main] DEBUG nextflow.executor.ExecutorFactory - << taskConfig executor: null
Aug-27 15:22:21.340 [main] DEBUG nextflow.executor.ExecutorFactory - >> processorType: 'local'
Aug-27 15:22:21.346 [main] DEBUG nextflow.executor.Executor - [warm up] executor > local
Aug-27 15:22:21.351 [main] DEBUG n.processor.LocalPollingMonitor - Creating local task monitor for executor 'local' > cpus=4; memory=3.8 GB; capacity=4; pollInterval=100ms; dumpInterval=5m
Aug-27 15:22:21.546 [main] DEBUG nextflow.executor.ExecutorFactory - << taskConfig executor: null
Aug-27 15:22:21.546 [main] DEBUG nextflow.executor.ExecutorFactory - >> processorType: 'local'
Aug-27 15:22:21.573 [main] DEBUG nextflow.executor.ExecutorFactory - << taskConfig executor: null
Aug-27 15:22:21.573 [main] DEBUG nextflow.executor.ExecutorFactory - >> processorType: 'local'
Aug-27 15:22:21.612 [main] DEBUG nextflow.executor.ExecutorFactory - << taskConfig executor: null
Aug-27 15:22:21.612 [main] DEBUG nextflow.executor.ExecutorFactory - >> processorType: 'local'
Aug-27 15:22:21.618 [main] DEBUG nextflow.executor.ExecutorFactory - << taskConfig executor: null
Aug-27 15:22:21.619 [main] DEBUG nextflow.executor.ExecutorFactory - >> processorType: 'local'
Aug-27 15:22:21.625 [main] DEBUG nextflow.executor.ExecutorFactory - << taskConfig executor: null
Aug-27 15:22:21.625 [main] DEBUG nextflow.executor.ExecutorFactory - >> processorType: 'local'
Aug-27 15:22:21.629 [main] DEBUG nextflow.Session - Ignite dataflow network (7)
Aug-27 15:22:21.638 [main] DEBUG nextflow.processor.TaskProcessor - Starting process > split_file
Aug-27 15:22:21.639 [main] DEBUG nextflow.processor.TaskProcessor - Starting process > start_colon
Aug-27 15:22:21.639 [main] DEBUG nextflow.processor.TaskProcessor - Starting process > end_colon
Aug-27 15:22:21.648 [main] DEBUG nextflow.processor.TaskProcessor - Starting process > calculate_start_total
Aug-27 15:22:21.655 [main] DEBUG nextflow.processor.TaskProcessor - Starting process > calculate_end_total
Aug-27 15:22:21.656 [main] DEBUG nextflow.processor.TaskProcessor - Starting process > ausgabe
Aug-27 15:22:21.657 [main] DEBUG nextflow.script.ScriptRunner - > Await termination 
Aug-27 15:22:21.658 [main] DEBUG nextflow.Session - Session await
Aug-27 15:22:21.873 [Task submitter] DEBUG nextflow.executor.LocalTaskHandler - Launch cmd line: /bin/bash -ue .command.run
Aug-27 15:22:21.882 [Task submitter] INFO  nextflow.Session - [c5/bd489a] Submitted process > split_file (1)
Aug-27 15:22:21.943 [Task monitor] DEBUG n.processor.TaskPollingMonitor - Task completed > TaskHandler[id: 1; name: split_file (1); status: COMPLETED; exit: 0; error: -; workDir: /home/alexander/ngsGit/fastaGrepTest/fastagreptrial/work/c5/bd489a4779767fe3c9026117d1f7c9]
Aug-27 15:22:22.014 [Task submitter] DEBUG nextflow.executor.LocalTaskHandler - Launch cmd line: /bin/bash -ue .command.run
Aug-27 15:22:22.015 [Task submitter] INFO  nextflow.Session - [6d/d4ff2e] Submitted process > end_colon (1)
Aug-27 15:22:22.057 [Task submitter] DEBUG nextflow.executor.LocalTaskHandler - Launch cmd line: /bin/bash -ue .command.run
Aug-27 15:22:22.076 [Task submitter] INFO  nextflow.Session - [79/f23f12] Submitted process > start_colon (1)
Aug-27 15:22:22.081 [Task submitter] DEBUG nextflow.executor.LocalTaskHandler - Launch cmd line: /bin/bash -ue .command.run
Aug-27 15:22:22.089 [Task submitter] INFO  nextflow.Session - [b8/71f37d] Submitted process > start_colon (3)
Aug-27 15:22:22.099 [Task submitter] DEBUG nextflow.executor.LocalTaskHandler - Launch cmd line: /bin/bash -ue .command.run
Aug-27 15:22:22.100 [Task submitter] INFO  nextflow.Session - [af/17fe23] Submitted process > start_colon (4)
Aug-27 15:22:22.131 [Task monitor] DEBUG n.processor.TaskPollingMonitor - Task completed > TaskHandler[id: 2; name: end_colon (1); status: COMPLETED; exit: 1; error: -; workDir: /home/alexander/ngsGit/fastaGrepTest/fastagreptrial/work/6d/d4ff2ea17289c95f62f28556769b34]
Aug-27 15:22:22.140 [Task submitter] DEBUG nextflow.executor.LocalTaskHandler - Launch cmd line: /bin/bash -ue .command.run
Aug-27 15:22:22.145 [Task submitter] INFO  nextflow.Session - [7a/7c7231] Submitted process > start_colon (5)
Aug-27 15:22:22.166 [Task monitor] ERROR nextflow.processor.TaskProcessor - Error executing process > 'end_colon (1)'

Caused by:
  Process `end_colon (1)` terminated with an error exit status (1)

Command executed:

  grep -o -i "TAA" sequences.fasta.line00 > grepresult2
  cat grepresult | wc -l > sequences.fasta.line00.endCount

Command exit status:
  1

Command output:
  (empty)

Work dir:
  /home/alexander/ngsGit/fastaGrepTest/fastagreptrial/work/6d/d4ff2ea17289c95f62f28556769b34

Tip: you can replicate the issue by changing to the process work dir and entering the command `bash .command.run`
Aug-27 15:22:22.176 [Task monitor] DEBUG nextflow.Session - Session aborted -- Cause: Process `end_colon (1)` terminated with an error exit status (1)
Aug-27 15:22:22.229 [Task monitor] DEBUG nextflow.Session - The following nodes are still active:
[process] calculate_start_total
  status=ACTIVE
  port 0: (value) OPEN  ; channel: infiles
  port 1: (cntrl) -     ; channel: $

[process] calculate_end_total
  status=ACTIVE
  port 0: (value) OPEN  ; channel: infiles
  port 1: (cntrl) -     ; channel: $

[process] ausgabe
  status=ACTIVE
  port 0: (value) OPEN  ; channel: startfile
  port 1: (value) OPEN  ; channel: endfile
  port 2: (cntrl) -     ; channel: $

Aug-27 15:22:22.233 [main] DEBUG nextflow.Session - Session await > all process finished
Aug-27 15:22:22.233 [main] DEBUG nextflow.Session - Session await > all barriers passed
Aug-27 15:22:22.249 [main] WARN  n.processor.TaskPollingMonitor - Killing pending tasks (4)
Aug-27 15:22:22.252 [Task monitor] DEBUG n.processor.TaskPollingMonitor - Task completed > TaskHandler[id: 3; name: start_colon (1); status: COMPLETED; exit: 1; error: -; workDir: /home/alexander/ngsGit/fastaGrepTest/fastagreptrial/work/79/f23f12d9f08a25a7aa92d51cfa4dc0]
Aug-27 15:22:22.274 [Task monitor] DEBUG n.processor.TaskPollingMonitor - Task completed > TaskHandler[id: 5; name: start_colon (3); status: COMPLETED; exit: 1; error: -; workDir: /home/alexander/ngsGit/fastaGrepTest/fastagreptrial/work/b8/71f37df2ac84d0b524acf1ef3ab063]
Aug-27 15:22:22.274 [main] DEBUG nextflow.executor.LocalTaskHandler - Unable to kill start_colon (3) -- command: kill -TERM 49040; exit: 1 
 bash: line 0: kill: (49040) - No such process

Aug-27 15:22:22.281 [main] DEBUG nextflow.executor.LocalTaskHandler - Unable to kill start_colon (4) -- command: kill -TERM 49052; exit: 1 
 bash: line 0: kill: (49052) - No such process

Aug-27 15:22:22.287 [Task monitor] DEBUG n.processor.TaskPollingMonitor - Task completed > TaskHandler[id: 6; name: start_colon (4); status: COMPLETED; exit: 0; error: -; workDir: /home/alexander/ngsGit/fastaGrepTest/fastagreptrial/work/af/17fe23d852b7a1d10916711aeb26ff]
Aug-27 15:22:22.312 [main] DEBUG nextflow.executor.LocalTaskHandler - Unable to kill start_colon (5) -- command: kill -TERM 49089; exit: 1 
 bash: line 0: kill: (49089) - No such process

Aug-27 15:22:22.314 [main] DEBUG nextflow.trace.WorkflowStatsObserver - Workflow completed > WorkflowStats[succeededCount=1; failedCount=3; ignoredCount=0; cachedCount=0; pendingCount=11; submittedCount=1; runningCount=-3; retriesCount=0; abortedCount=4; succeedDuration=13ms; failedDuration=65ms; cachedDuration=0ms;loadCpus=-3; loadMemory=0; peakRunning=1; peakCpus=1; peakMemory=0; ]
Aug-27 15:22:22.393 [main] DEBUG nextflow.CacheDB - Closing CacheDB done
Aug-27 15:22:22.424 [main] DEBUG nextflow.script.ScriptRunner - > Execution complete -- Goodbye
