Aug-27 15:26:34.499 [main] DEBUG nextflow.cli.Launcher - $> nextflow run fastaGrep.nf
Aug-27 15:26:34.660 [main] INFO  nextflow.cli.CmdRun - N E X T F L O W  ~  version 21.04.3
Aug-27 15:26:34.689 [main] INFO  nextflow.cli.CmdRun - Launching `fastaGrep.nf` [nasty_hawking] - revision: 836d23bdb1
Aug-27 15:26:34.786 [main] DEBUG nextflow.plugin.PluginsFacade - Setting up plugin manager > mode=prod; plugins-dir=/home/alexander/.nextflow/plugins
Aug-27 15:26:34.787 [main] DEBUG nextflow.plugin.PluginsFacade - Plugins default=[]
Aug-27 15:26:34.790 [main] DEBUG nextflow.plugin.PluginsFacade - Plugins local root: .nextflow/plr/empty
Aug-27 15:26:34.801 [main] INFO  org.pf4j.DefaultPluginStatusProvider - Enabled plugins: []
Aug-27 15:26:34.802 [main] INFO  org.pf4j.DefaultPluginStatusProvider - Disabled plugins: []
Aug-27 15:26:34.808 [main] INFO  org.pf4j.DefaultPluginManager - PF4J version 3.4.1 in 'deployment' mode
Aug-27 15:26:34.821 [main] INFO  org.pf4j.AbstractPluginManager - No plugins
Aug-27 15:26:34.913 [main] DEBUG nextflow.Session - Session uuid: 93b2b422-4245-4425-9334-6b1a77f135a9
Aug-27 15:26:34.913 [main] DEBUG nextflow.Session - Run name: nasty_hawking
Aug-27 15:26:34.916 [main] DEBUG nextflow.Session - Executor pool size: 4
Aug-27 15:26:34.967 [main] DEBUG nextflow.cli.CmdRun - 
  Version: 21.04.3 build 5560
  Created: 21-07-2021 15:09 UTC (17:09 CEST)
  System: Linux 5.11.0-27-generic
  Runtime: Groovy 3.0.7 on OpenJDK 64-Bit Server VM 11.0.11+9-Ubuntu-0ubuntu2.20.04
  Encoding: UTF-8 (UTF-8)
  Process: 49375@alexander-VirtualBox [127.0.1.1]
  CPUs: 4 - Mem: 3.8 GB (284.5 MB) - Swap: 923.3 MB (888 MB)
Aug-27 15:26:34.995 [main] DEBUG nextflow.Session - Work-dir: /home/alexander/ngsGit/fastaGrepTest/fastagreptrial/work [ext2/ext3]
Aug-27 15:26:34.995 [main] DEBUG nextflow.Session - Script base path does not exist or is not a directory: /home/alexander/ngsGit/fastaGrepTest/fastagreptrial/bin
Aug-27 15:26:35.010 [main] DEBUG nextflow.executor.ExecutorFactory - Extension executors providers=[]
Aug-27 15:26:35.025 [main] DEBUG nextflow.Session - Observer factory: DefaultObserverFactory
Aug-27 15:26:35.194 [main] DEBUG nextflow.Session - Session start invoked
Aug-27 15:26:36.773 [main] DEBUG nextflow.script.ScriptRunner - > Launching execution
Aug-27 15:26:36.824 [main] DEBUG nextflow.Session - Workflow process names [dsl2]: calculate_start_total, ausgabe, end_colon, split_file, start_colon, calculate_end_total
Aug-27 15:26:36.937 [main] DEBUG nextflow.executor.ExecutorFactory - << taskConfig executor: null
Aug-27 15:26:36.938 [main] DEBUG nextflow.executor.ExecutorFactory - >> processorType: 'local'
Aug-27 15:26:36.944 [main] DEBUG nextflow.executor.Executor - [warm up] executor > local
Aug-27 15:26:36.950 [main] DEBUG n.processor.LocalPollingMonitor - Creating local task monitor for executor 'local' > cpus=4; memory=3.8 GB; capacity=4; pollInterval=100ms; dumpInterval=5m
Aug-27 15:26:37.143 [main] DEBUG nextflow.executor.ExecutorFactory - << taskConfig executor: null
Aug-27 15:26:37.143 [main] DEBUG nextflow.executor.ExecutorFactory - >> processorType: 'local'
Aug-27 15:26:37.154 [main] DEBUG nextflow.executor.ExecutorFactory - << taskConfig executor: null
Aug-27 15:26:37.154 [main] DEBUG nextflow.executor.ExecutorFactory - >> processorType: 'local'
Aug-27 15:26:37.177 [main] DEBUG nextflow.executor.ExecutorFactory - << taskConfig executor: null
Aug-27 15:26:37.177 [main] DEBUG nextflow.executor.ExecutorFactory - >> processorType: 'local'
Aug-27 15:26:37.185 [main] DEBUG nextflow.executor.ExecutorFactory - << taskConfig executor: null
Aug-27 15:26:37.185 [main] DEBUG nextflow.executor.ExecutorFactory - >> processorType: 'local'
Aug-27 15:26:37.190 [main] DEBUG nextflow.executor.ExecutorFactory - << taskConfig executor: null
Aug-27 15:26:37.190 [main] DEBUG nextflow.executor.ExecutorFactory - >> processorType: 'local'
Aug-27 15:26:37.193 [main] DEBUG nextflow.Session - Ignite dataflow network (7)
Aug-27 15:26:37.200 [main] DEBUG nextflow.processor.TaskProcessor - Starting process > split_file
Aug-27 15:26:37.201 [main] DEBUG nextflow.processor.TaskProcessor - Starting process > start_colon
Aug-27 15:26:37.201 [main] DEBUG nextflow.processor.TaskProcessor - Starting process > end_colon
Aug-27 15:26:37.204 [main] DEBUG nextflow.processor.TaskProcessor - Starting process > calculate_start_total
Aug-27 15:26:37.206 [main] DEBUG nextflow.processor.TaskProcessor - Starting process > calculate_end_total
Aug-27 15:26:37.207 [main] DEBUG nextflow.processor.TaskProcessor - Starting process > ausgabe
Aug-27 15:26:37.208 [main] DEBUG nextflow.script.ScriptRunner - > Await termination 
Aug-27 15:26:37.208 [main] DEBUG nextflow.Session - Session await
Aug-27 15:26:37.461 [Task submitter] DEBUG nextflow.executor.LocalTaskHandler - Launch cmd line: /bin/bash -ue .command.run
Aug-27 15:26:37.468 [Task submitter] INFO  nextflow.Session - [78/7c93dd] Submitted process > split_file (1)
Aug-27 15:26:37.514 [Task monitor] DEBUG n.processor.TaskPollingMonitor - Task completed > TaskHandler[id: 1; name: split_file (1); status: COMPLETED; exit: 0; error: -; workDir: /home/alexander/ngsGit/fastaGrepTest/fastagreptrial/work/78/7c93dd33d6dde77e70211738c7a7cb]
Aug-27 15:26:37.572 [Task submitter] DEBUG nextflow.executor.LocalTaskHandler - Launch cmd line: /bin/bash -ue .command.run
Aug-27 15:26:37.589 [Task submitter] INFO  nextflow.Session - [fd/d56c45] Submitted process > start_colon (1)
Aug-27 15:26:37.611 [Task submitter] DEBUG nextflow.executor.LocalTaskHandler - Launch cmd line: /bin/bash -ue .command.run
Aug-27 15:26:37.626 [Task submitter] INFO  nextflow.Session - [ab/80163a] Submitted process > end_colon (1)
Aug-27 15:26:37.640 [Task submitter] DEBUG nextflow.executor.LocalTaskHandler - Launch cmd line: /bin/bash -ue .command.run
Aug-27 15:26:37.661 [Task submitter] INFO  nextflow.Session - [18/3bed58] Submitted process > start_colon (2)
Aug-27 15:26:37.671 [Task monitor] DEBUG n.processor.TaskPollingMonitor - Task completed > TaskHandler[id: 2; name: start_colon (1); status: COMPLETED; exit: 1; error: -; workDir: /home/alexander/ngsGit/fastaGrepTest/fastagreptrial/work/fd/d56c458ce952b22d3feef0ff16b449]
Aug-27 15:26:37.673 [Task submitter] DEBUG nextflow.executor.LocalTaskHandler - Launch cmd line: /bin/bash -ue .command.run
Aug-27 15:26:37.678 [Task submitter] INFO  nextflow.Session - [08/2f7356] Submitted process > end_colon (2)
Aug-27 15:26:37.683 [Task submitter] DEBUG nextflow.executor.LocalTaskHandler - Launch cmd line: /bin/bash -ue .command.run
Aug-27 15:26:37.684 [Task submitter] INFO  nextflow.Session - [24/40f0f3] Submitted process > start_colon (3)
Aug-27 15:26:37.752 [Task monitor] ERROR nextflow.processor.TaskProcessor - Error executing process > 'start_colon (1)'

Caused by:
  Process `start_colon (1)` terminated with an error exit status (1)

Command executed:

  grep -o -i "ATG" sequences.fasta.line00 > grepresult
  cat grepresult | wc -l > sequences.fasta.line00.startCount

Command exit status:
  1

Command output:
  (empty)

Work dir:
  /home/alexander/ngsGit/fastaGrepTest/fastagreptrial/work/fd/d56c458ce952b22d3feef0ff16b449

Tip: you can try to figure out what's wrong by changing to the process work dir and showing the script file named `.command.sh`
Aug-27 15:26:37.758 [Task monitor] DEBUG nextflow.Session - Session aborted -- Cause: Process `start_colon (1)` terminated with an error exit status (1)
Aug-27 15:26:37.786 [Task monitor] DEBUG nextflow.Session - The following nodes are still active:
[process] calculate_start_total
  status=ACTIVE
  port 0: (value) OPEN  ; channel: infiles
  port 1: (cntrl) -     ; channel: $

[process] calculate_end_total
  status=ACTIVE
  port 0: (value) OPEN  ; channel: infiles
  port 1: (cntrl) -     ; channel: $

[process] ausgabe
  status=ACTIVE
  port 0: (value) OPEN  ; channel: startfile
  port 1: (value) OPEN  ; channel: endfile
  port 2: (cntrl) -     ; channel: $

Aug-27 15:26:37.789 [main] DEBUG nextflow.Session - Session await > all process finished
Aug-27 15:26:37.790 [main] DEBUG nextflow.Session - Session await > all barriers passed
Aug-27 15:26:37.797 [Task monitor] DEBUG n.processor.TaskPollingMonitor - Task completed > TaskHandler[id: 3; name: end_colon (1); status: COMPLETED; exit: 1; error: -; workDir: /home/alexander/ngsGit/fastaGrepTest/fastagreptrial/work/ab/80163adb9944b6a3b9913e90f1296b]
Aug-27 15:26:37.800 [main] WARN  n.processor.TaskPollingMonitor - Killing pending tasks (3)
Aug-27 15:26:37.834 [main] DEBUG nextflow.executor.LocalTaskHandler - Unable to kill start_colon (2) -- command: kill -TERM 49514; exit: 1 
 bash: line 0: kill: (49514) - No such process

Aug-27 15:26:37.843 [main] DEBUG nextflow.executor.LocalTaskHandler - Unable to kill end_colon (2) -- command: kill -TERM 49515; exit: 1 
 bash: line 0: kill: (49515) - No such process

Aug-27 15:26:37.849 [main] DEBUG nextflow.executor.LocalTaskHandler - Unable to kill start_colon (3) -- command: kill -TERM 49513; exit: 1 
 bash: line 0: kill: (49513) - No such process

Aug-27 15:26:37.851 [main] DEBUG nextflow.trace.WorkflowStatsObserver - Workflow completed > WorkflowStats[succeededCount=1; failedCount=2; ignoredCount=0; cachedCount=0; pendingCount=11; submittedCount=2; runningCount=-1; retriesCount=0; abortedCount=2; succeedDuration=2ms; failedDuration=3ms; cachedDuration=0ms;loadCpus=-1; loadMemory=0; peakRunning=1; peakCpus=1; peakMemory=0; ]
Aug-27 15:26:37.975 [main] DEBUG nextflow.CacheDB - Closing CacheDB done
Aug-27 15:26:37.996 [main] DEBUG nextflow.script.ScriptRunner - > Execution complete -- Goodbye
